<svg width="52" height="103" viewBox="0 0 52 103" fill="none" xmlns="http://www.w3.org/2000/svg">
<path d="M29.96 103V43.528C29.96 41.032 30.008 37.768 30.104 33.736C30.296 29.704 30.44 26.152 30.536 23.08C30.056 23.656 29 24.712 27.368 26.248C25.832 27.688 24.392 28.984 23.048 30.136L11.24 39.64L0.728 26.536L33.848 0.183993H51.704V103H29.96Z" fill="#FFF9C5"/>
</svg>
