<svg width="78" height="103" viewBox="0 0 78 103" fill="none" xmlns="http://www.w3.org/2000/svg">
<path d="M44.368 103V81.688H0.448V66.568L45.52 0.183993H65.536V64.84H77.92V81.688H65.536V103H44.368ZM44.368 64.84V40.216C44.368 36.856 44.416 34.072 44.512 31.864C44.704 29.656 44.848 27.688 44.944 25.96H44.368C42.736 29.224 40.672 32.728 38.176 36.472L19.6 64.84H44.368Z" fill="#FFF9C5"/>
</svg>
