<svg width="201" height="201" viewBox="0 0 201 201" fill="none" xmlns="http://www.w3.org/2000/svg">
<path d="M180.403 149.225C184.257 151.717 187.489 153.78 190.72 155.921C191.498 156.427 192.277 156.894 192.939 157.478C194.613 159.075 194.301 160.749 192.199 161.722C190.253 162.617 188.345 163.513 185.931 164.642C188.462 166.588 190.564 168.223 192.705 169.858C194.807 171.493 195.158 172.7 194.574 175.231C194.185 176.944 193.289 177.995 191.576 178.384C189.863 178.773 189.163 177.528 188.111 176.515C185.27 173.751 182.272 171.143 179.196 168.613C178.145 167.756 176.822 167.016 177.25 165.615C177.522 164.681 178.651 163.824 179.586 163.357C181.454 162.462 183.44 161.917 185.347 161.099C186.632 160.554 187.8 159.853 189.201 159.114C187.527 156.311 184.647 155.727 182.544 154.169C181.221 153.196 179.78 152.34 178.301 151.522C177.678 151.172 176.783 150.86 176.16 151.055C169.814 153.196 163.196 153.274 156.617 153.508C156.266 153.508 155.916 153.741 155.254 153.936C155.916 156.038 156.539 158.101 157.162 160.165C158.563 164.875 159.926 169.586 161.366 174.257C162.534 178.112 163.313 178.579 167.439 178.851C170.126 179.007 172.851 179.163 175.498 179.747C177.406 180.175 180.286 180.447 179.975 183.095C179.703 185.314 177.055 185.781 175.031 186.17C172.5 186.637 169.931 187.027 167.362 187.299C161.833 187.883 158.641 184.613 158.992 178.968C159.069 177.722 159.108 176.399 158.797 175.231C157.162 168.69 155.371 162.228 153.658 155.727C153.463 154.987 153.152 154.286 152.879 153.547C145.054 151.989 137.385 150.354 130.027 147.279C122.047 143.931 118.115 138.13 117.141 129.565C116.596 124.66 119.01 120.884 120.178 116.641C121.657 111.19 126.329 109.4 130.767 107.375C133.142 106.285 135.049 105.39 134.66 102.12C134.543 100.991 135.906 99.1998 137.035 98.499C140.694 96.3579 144.471 94.3724 148.364 92.6984C156.539 89.2336 165.181 88.8054 173.474 91.3748C179.741 93.2824 185.581 96.7861 186.437 104.689C186.788 107.959 189.902 108.971 192.433 110.022C195.041 111.112 197.026 112.631 198.584 115.044C201.62 119.833 201.231 124.427 196.988 128.164C195.898 129.137 194.846 129.877 194.807 131.551C194.496 139.064 190.369 144.009 183.985 147.318C183.012 147.863 181.999 148.408 180.403 149.225ZM187.255 170.403C187.527 171.805 188.267 172.467 190.292 172.116C189.085 171.299 188.267 170.754 187.489 170.209C187.138 168.652 186.165 168.184 184.53 168.846C185.425 169.352 186.321 169.858 187.255 170.403ZM134.115 109.01C129.95 111.035 124.889 111.852 124.266 117.808C124.266 117.925 124.227 118.081 124.149 118.198C122.514 121.04 121.774 124.076 121.463 127.385C120.801 133.848 123.526 140.116 129.366 142.919C139.643 147.824 150.427 150.588 161.989 150.276C170.71 150.043 178.573 147.824 185.581 142.646C190.798 138.792 193.717 132.174 190.369 126.295C186.476 119.521 181.493 113.332 173.785 110.529C169.075 108.816 164.13 107.648 159.186 106.674C153.074 105.468 146.845 105.195 140.655 106.519C139.526 106.752 138.32 106.908 138.203 108.504C138.086 109.945 138.436 111.074 139.877 111.657C140.461 111.891 141.2 111.969 141.668 112.358C142.991 113.526 144.587 114.655 145.405 116.134C148.052 120.806 147.351 124.543 143.264 128.748C139.76 132.33 135.166 133.536 130.495 131.356C126.018 129.293 123.993 124.738 126.018 120.495C127.38 117.614 129.093 114.772 132.246 113.293C133.881 112.475 134.933 111.346 134.115 109.01ZM179.08 110.178C184.725 106.129 183.206 102.937 179.741 99.1219C177.25 96.3579 173.629 94.8785 169.892 94.061C166.155 93.2434 162.456 93.6717 158.719 93.9052C154.203 94.1778 150.154 95.9296 146.106 97.5258C143.848 98.4212 141.901 100.095 139.955 101.575C139.332 102.042 139.059 102.976 138.242 104.3C145.677 102.781 152.49 102.937 159.303 104.183C166.194 105.351 173.123 106.363 179.08 110.178ZM143.03 120.806C143.069 116.018 139.137 113.721 134.855 115.862C132.48 117.03 131.312 119.093 129.872 121.118C127.38 124.699 131.156 128.904 134.388 128.981C138.047 129.02 143.536 125.322 143.03 120.806ZM183.751 113.604C185.62 115.551 187.527 117.302 189.163 119.288C190.837 121.312 192.277 123.531 193.834 125.75C197.299 122.091 197.883 119.171 195.08 116.446C193.017 114.46 190.253 113.137 187.605 111.891C186.399 111.268 184.802 111.619 183.751 113.604ZM174.914 182.705C170.204 180.915 165.688 181.304 163.04 183.951C167.245 184.496 170.982 184.808 174.914 182.705Z" fill="black"/>
<path d="M163.237 137.001C162.848 138.831 161.797 139.648 160.668 138.831C156.853 136.028 152.998 137.858 149.105 138.286C147.354 138.481 145.563 138.403 143.811 138.169C142.76 138.013 141.397 137.429 141.748 135.872C142.059 134.471 143.266 134.354 144.512 134.432C146.302 134.549 148.093 134.588 149.884 134.549C151.285 134.51 152.687 134.276 154.127 134.159C157.592 133.848 160.668 134.821 163.237 137.001Z" fill="black"/>
<path d="M158.641 118.159C157.629 116.952 156.539 116.212 156.422 115.356C156.305 114.11 157.473 113.02 158.68 113.332C159.537 113.526 160.471 114.694 160.704 115.59C160.86 116.135 159.653 116.991 158.641 118.159Z" fill="black"/>
<path d="M173.821 115.316C172.109 116.29 171.291 117.029 170.357 117.185C168.955 117.457 168.177 116.329 168.06 115.122C167.904 113.564 169.189 113.058 170.357 113.253C171.33 113.448 172.147 114.265 173.821 115.316Z" fill="black"/>
<path d="M101.108 97.3844C99.7301 94.652 98.6987 92.7456 97.7405 90.7975C96.6937 88.7507 95.6113 86.6815 94.6189 84.625C94.0443 83.4389 93.813 82.2487 95.3029 81.7822C96.7385 81.3254 98.1691 82.1296 98.8089 83.705C100.933 89.0819 103.003 94.4685 105.128 99.8454C105.266 100.193 105.53 100.575 105.827 101.152C109.664 101.756 113.153 103.624 116.43 106.189C120.795 109.562 121.25 113.376 117.414 115.694C116.446 116.267 115.638 116.984 114.612 117.74C115.131 119.022 115.669 120.272 116.134 121.478C117.721 125.605 117.597 129.493 115.314 132.822C111.546 138.363 105.65 140.705 98.7362 141.366C98.483 141.383 98.2111 141.431 97.9408 141.394C92.5361 140.555 90.3002 143.302 89.17 147.829C87.6683 153.91 85.6463 159.798 83.983 165.823C83.4996 167.57 83.3206 169.464 82.9599 171.418C84.6081 172.184 85.8819 172.672 87.0439 173.352C88.2415 174.055 89.5293 174.77 90.4334 175.725C92.2057 177.614 91.7299 179.933 89.325 180.047C85.9616 180.218 82.4475 179.729 78.9862 179.316C78.4456 179.241 77.4888 178.209 77.4268 177.647C77.1988 175.282 76.3789 172.679 78.5432 170.89C79.0933 170.448 79.5035 169.744 79.7149 169.048C82.2968 160.196 84.8786 151.344 87.4247 142.47C87.5211 142.138 87.33 141.714 87.2711 140.979C82.6899 139.564 78.0373 138.103 72.917 136.526C72.8669 139.284 72.9318 141.678 72.8165 144.047C72.5513 150.681 71.9972 157.31 72.0023 163.982C71.9986 168.164 72.8415 172.481 73.2339 176.735C73.358 177.858 73.6048 179.189 73.2085 180.119C71.1773 184.519 68.0448 187.885 63.0158 189.241C61.5818 189.612 60.21 189.542 59.421 188.222C58.9132 187.339 58.758 185.935 59.0813 185.047C60.4831 181.475 62.6663 178.651 67.1375 178.167C68.079 178.056 69.0361 177.083 69.4852 176.23C69.9514 175.431 70.0091 174.246 69.9005 173.263C68.6622 163.862 70.1815 154.828 70.259 145.592C70.2829 142.295 70.4155 138.978 70.5341 135.434C62.8196 132.459 57.133 126.257 50.7954 121.088C46.665 117.731 44.9973 113.074 44.4884 108.268C44.0262 103.883 45.6316 100.045 46.8765 96.1572C47.0693 95.4928 47.7654 94.9675 48.3154 94.5256C55.4439 88.9856 64.0524 87.5057 73.7059 89.1612C81.1084 90.4168 88.3149 92.5092 95.3396 95.6651C96.8464 96.2552 98.4667 96.5673 101.108 97.3844ZM112.512 130.945C112.927 129.983 113.703 128.985 113.705 127.897C113.726 125.774 113.495 123.581 113.082 121.45C112.753 119.676 111.491 118.498 109.59 117.749C108.836 117.454 107.658 115.717 107.863 115.366C108.797 113.681 107.644 112.484 106.821 111.056C105.509 108.712 104.415 106.244 103.176 103.86C102.949 103.413 102.598 102.846 102.151 102.611C100.22 101.495 98.3465 100.197 96.2819 99.4776C88.6156 96.8372 81.1281 93.3058 73.0886 92.3071C65.1393 91.321 57.603 91.4639 51.8509 96.8154C46.7235 101.597 46.5075 111.487 51.8586 117.262C57.5281 123.409 63.8968 128.858 71.6748 132.309C80.6894 136.313 89.7788 139.186 99.2665 138.036C104.842 137.412 109.432 135.39 112.512 130.945ZM108.784 104.433C110.464 108.4 111.693 111.388 113.01 114.475C117.663 111.926 117.699 109.944 113.433 107.068C112.256 106.248 110.912 105.628 108.784 104.433ZM62.8221 185.983C64.9414 184.688 66.8616 184.402 67.4321 181.837C65.0924 182.341 63.7205 183.273 62.8221 185.983Z" fill="black"/>
<path d="M61.8732 119.513C60.4631 117.781 58.7522 116.16 57.8017 114.29C56.4946 111.73 57.8931 110.223 60.7183 110.499C65.9303 110.991 67.4822 114.597 67.3091 119.294C67.2634 120.839 66.0315 120.92 64.8071 120.58C63.95 120.342 63.1172 119.737 62.2813 119.3C62.1226 119.328 62.0153 119.431 61.8732 119.513ZM63.2145 116.311C63.4988 116.148 63.7648 116.017 64.0838 115.876C63.5503 115.245 62.9639 114.624 62.4304 113.993C62.252 114.136 62.0917 114.249 61.8785 114.371C62.3062 115.021 62.7521 115.639 63.2145 116.311Z" fill="black"/>
<path d="M96.6824 115.432C96.1536 114.636 95.8283 114.221 95.6083 113.787C94.8326 112.116 94.1623 110.426 91.8388 110.035C91.3144 109.962 90.3232 108.58 90.4724 108.08C90.5885 107.475 91.6691 106.836 92.3517 106.881C93.2964 106.962 94.4973 107.415 95.1677 108.131C96.9048 109.936 97.7407 112.153 97.7509 114.489C97.7991 114.731 97.3048 114.931 96.6824 115.432Z" fill="black"/>
<path d="M87.3135 103.325C85.3652 102.404 83.6727 101.769 82.1072 100.835C81.4882 100.449 80.7437 99.3132 80.8738 98.8486C81.0055 98.301 82.0762 97.7511 82.7879 97.8169C85.2193 97.9893 87.0223 100.205 87.3135 103.325Z" fill="black"/>
</svg>
